A Master’s Companion
…
We will test our implementation using the General Relativity network from the Stanford Network Analysis Project.

url <- "http://snap.stanford.edu/data/ca-GrQc.txt.gz"
gr <- readr::read_tsv(url, skip = 4, col_names = c("from", "to"))
gr

## # A tibble: 28,980 x 2
##     from    to
##    <int> <int>
##  1  3466   937
##  2  3466  5233
##  3  3466  8579
##  4  3466 10310
##  5  3466 15931
##  6  3466 17038
##  7  3466 18720
##  8  3466 19607
##  9 10310  1854
## 10 10310  3466
## # ... with 28,970 more rows
…
